^C:\USERS\IVAN\DESKTOP\MATERIJALI S FAKSA\OBJEKTNO PROGRAMIRANJE\OBJEKTNO-PROGRAMIRANJE\VJEZBA10\ZADATAK1\PRVI_ZAD\MAIN.CPP|C:\USERS\IVAN\DESKTOP\MATERIJALI S FAKSA\OBJEKTNO PROGRAMIRANJE\OBJEKTNO-PROGRAMIRANJE\VJEZBA10\ZADATAK1\PRVI_ZAD\STACK.H
C:\USERS\IVAN\DESKTOP\MATERIJALI S FAKSA\OBJEKTNO PROGRAMIRANJE\OBJEKTNO-PROGRAMIRANJE\VJEZBA10\ZADATAK1\PRVI_ZAD\DEBUG\VC143.PDB
C:\USERS\IVAN\DESKTOP\MATERIJALI S FAKSA\OBJEKTNO PROGRAMIRANJE\OBJEKTNO-PROGRAMIRANJE\VJEZBA10\ZADATAK1\PRVI_ZAD\DEBUG\VC143.IDB
C:\USERS\IVAN\DESKTOP\MATERIJALI S FAKSA\OBJEKTNO PROGRAMIRANJE\OBJEKTNO-PROGRAMIRANJE\VJEZBA10\ZADATAK1\PRVI_ZAD\DEBUG\STACK.OBJ
C:\USERS\IVAN\DESKTOP\MATERIJALI S FAKSA\OBJEKTNO PROGRAMIRANJE\OBJEKTNO-PROGRAMIRANJE\VJEZBA10\ZADATAK1\PRVI_ZAD\DEBUG\MAIN.OBJ
^C:\USERS\IVAN\DESKTOP\MATERIJALI S FAKSA\OBJEKTNO PROGRAMIRANJE\OBJEKTNO-PROGRAMIRANJE\VJEZBA10\ZADATAK1\PRVI_ZAD\MAIN.CPP
C:\USERS\IVAN\DESKTOP\MATERIJALI S FAKSA\OBJEKTNO PROGRAMIRANJE\OBJEKTNO-PROGRAMIRANJE\VJEZBA10\ZADATAK1\PRVI_ZAD\DEBUG\VC143.PDB
^C:\USERS\IVAN\DESKTOP\MATERIJALI S FAKSA\OBJEKTNO PROGRAMIRANJE\OBJEKTNO-PROGRAMIRANJE\VJEZBA10\ZADATAK1\PRVI_ZAD\STACK.H
C:\USERS\IVAN\DESKTOP\MATERIJALI S FAKSA\OBJEKTNO PROGRAMIRANJE\OBJEKTNO-PROGRAMIRANJE\VJEZBA10\ZADATAK1\PRVI_ZAD\DEBUG\VC143.PDB
